{
	"bn": {
		"review": "",
		"facts": [
			"Duncan Laurence'র জন্ম ১৯৯৪ সালে, নেদারল্যান্ডসে।",
			"Duncan Laurence'র আসল নাম Duncan de Moor.",
			"Duncan ২০১৪ সালে হল্যান্ডের The Voice প্রতিযোগিতায় সেমিফাইনালে উঠেছিলেন।",
			"Duncan'র Arcade গানটি Eurovision 2019 প্রতিযোগিতায় ৪১টি দেশের মধ্যে প্রথম হয়েছিল।",
			"১৯৭৫ সালের পর এটা ছিল Eurovision-এ নেদারল্যান্ডসের প্রথম বিজয়।",
			"২০১৯ সালের বিজয়ী দেশ হওয়ায় Eurovision 2020 নেদারল্যান্ডসে অনুষ্ঠিত হওয়ার কথা ছিল।",
			"কিন্তু সেটা বাতিল হয়ে গেছে। তবে ২০২০ সালের গানগুলো ২০২১ সালে carryover করার ব্যাপারে কথা হচ্ছে।",
			"Duncan'র প্রতি সম্মান রেখে ২০২০ সালে Eurovision-এ তারকাদের প্রবেশ গেটের নাম রাখা হয়েছিল \"Door Duncan\"।"
		],
		"other": ""
	}
}