{
	"bn": {
		"review": "",
		"facts": [
			"BiBi'র জন্ম ২০০২ সালে।",
			"BiBi'র আসল নাম Bianca Mihaela Lixandru.",
			"BiBi রোমানিয়ার একজন গায়িকা এবং তিনি pop-dance ও reggaeton স্টাইলের গান করেন।",
			"গায়িকা ২০১৮ সালে ডিজনির \"Ralph Breaks the Internet\"-এর রোমানিয়ার ভার্সনে একটি প্রধান চরিত্রে কণ্ঠ দিয়েছেন।",
			"BiBi, \"Ciocolata\" নামের একটি গানের মাধ্যমে প্রথম সফলতা অর্জন করেন।",
			"তাই হয়তো এই গানটির কথায় আছে \"Acuerdete que soy Bibi chocolata\"",
			"যার মানে - \"Remember that I'm Bibi chocolata\"",
			"Robert Cristianও রোমানিয়ার একজন ডিজে।"
		],
		"other": ""
	}
}