{
	"bn": {
		"review": "পুরোনো ক্লাসিকাল ইলেকট্রনিক মিউজিক আর আধুনিক সুর ও কম্পোজিশনের অসাধারণ মিশেল গানটি।",
		"facts": [
			"ভিডিওতে দুই গায়িকাকে ভিন্ন সাজে দেখা যায়। Aynur Aydın সবুজ ড্রেসে আর Damla Yıldız পারপেল রঙের চুলে।",
			"Aynur Aydın'র জন্ম ১৯৮৫ সালে, জার্মানিতে, মিউনিখে।",
			"কিন্তু Aynur-কে সবাই তুরস্কের গায়িকা হিসেবেই জানে।",
			"Aynur'র বাবা-মা দুজনেই তুরস্কের।",
			"Aynur ১০ বছর বয়স থেকে থিয়েটারে গান গাওয়া শুরু করেন এবং ১৮ বছর বয়সে উনি নিজের স্টেজ শো তৈরি শুরু করেন।",
			"সোলো কাজ করার আগে তিনি Sürpriz ও Tagtraeumer নামে দুটি ব্যান্ডে ছিলেন।",
			"২০১১ থেকে তিনি বিভিন্ন গান নিয়ে সোলো কাজ করছেন।",
			"Aynur ওনার কাজের জন্য দেশ ও দেশের বাইরে বিভিন্ন পুরস্কার অর্জন করেছেন।",
			"Damla Yıldızও তুরস্কের একজন গায়িকা।",
			"Damla এই গানটার মাধ্যমে নতুন ক্যারিয়ার শুরু করলেন।",
			"ভিডিওটার শেষের দিকে দুই গায়িকার হাতে \"Güneş\" এবং \"Bayraşa\" লেখা দেখা যায়।",
			"প্রথমটি গানটির সুরকার এবং পরেরটি প্রোডিউসারের নাম।"
		],
		"other": ""
	}
}