{
	"bn": {
		"review": "",
		"facts": [
			"Olga Buzova'র জন্ম ১৯৮৬ সালে, রাশিয়ার Leningrad শহরে।",
			"Olga Buzova'র পুরো নাম Olga Igorevna Buzova.",
			"রাশিয়ার মিডিয়ার জগতে ওনাকে অন্যতম সফল বলে ধরা হয়।",
			"গান গাওয়ার পাশাপাশি তিনি একজন টিভি পার্সোনালিটি।",
			"একসময় গায়িকার ফুটবলা খেলোয়ার Dmitri Tarasov-এর সাথে বিয়ে হয়েছিল।",
			"২০১৬ সালে ওনার প্রথম পপ গান Sounds of Kisses রিলিজ হয়।",
			"তারপর থেকে উনি অসংখ্য গান উপহার দিয়ে যাচ্ছেন।"
		],
		"other": ""
	}
}