{
	"bn": {
		"review": "",
		"facts": [
			"Yll Limani'র জন্ম ১৯৯৪ সালে, বর্তমান কসোভোর Pristina-তে।",
			"Yll Limani নামটির উচ্চারণ: ইউলি লিমানি।",
			"২০১১ সালে Limani আলবেনিয়ার The Voice প্রতিযোগিতায় অংশগ্রহণ করেন।",
			"The Voice-এ অংশগ্রহণ করার পর তিনি ব্যাপক জনপ্রিয়তা পান।",
			"২০১৭ সালে তিনি Eurovision-এর জন্য চেষ্টা করেন, কিন্তু জাতীয় প্রতিযোগিতায় তিনি বাদ পড়ে যান।",
			"২০১৯ সালে তিনি Pristina-তে Sunny Hill Festival-এ পারফর্ম করেন।",
			"সেখানে তিনি Miley Cyrus, Calvin Harris এবং Dua Lipa'র সাথে অংশগ্রহণ করেন।",
			"ওনার বাবা Mufail Limani, Minatori নামের একটি রক ব্যান্ডের সদস্য ছিলেন।",
			"Limani ২০১৫ সাল থেকে আমাদের অনেকগুলো গান উপহার দিয়েছেন।",
			"বিভিন্ন সময় Limani'র গানগুলো টপচার্টের শীর্ষে চলে আসে।",
			"গানের নাম Buzet e kuqe-এর মানে \"Red lips\"."
		],
		"other": ""
	}
}
