{
	"bn": {
		"review": "",
		"facts": [
			"ইতালির DJ NRD1 এবং indie সঙ্গীতশিল্পী Eon Melka ও Frank-O এদের নিয়ে SHANGUY.",
			"SHANGUY দলটি indie folk, reggae, electronic এরকম বিভিন্ন ধাচের genre নিয়ে কাজ করে।",
			"দলটির গান বিভিন্ন টপচার্টে স্থান পায়।",
			"এছাড়াও স্ট্রিমিং সার্ভিসগুলোতে মিলিয়ন মিলিয়নবার শোনা হয় তাদের গানগুলো।",
			"Désolée একটি ফ্রেঞ্চ শব্দ, যার মানে \"Sorry\"."
		],
		"other": ""
	}
}