{
	"bn": {
		"review": "",
		"facts": [
			"JO-এর আসল নাম Ioana Bianca Anuța.",
			"JO'র জন্ম ১৯৯৪ সালে, রোমানিয়ায়, Slatina নামের এক শহরে।",
			"ওনার সঙ্গীতের জগতটা শুরু হয় একটা রক ব্যান্ডের মাধ্যমে, যেটার নাম ছিল X-plod.",
			"২০০৯ সালে তিনি Junior Eurovision প্রতিযোগিতায় অংশগ্রহণ করেন।",
			"২০১২ সালে তিনি X Factor Romania-তে অংশগ্রহণ করে দ্বিতীয় হয়েছিলেন।",
			"এই গানটা রোমানিয়ার ভাষায় হলেও তিনি স্প্যানিশ ভাষায়ও গান করেছেন।",
			"ওনার স্প্যানিশ ভাষার গান, Sangria এই প্লেলিস্টে শেয়ার করা হয়েছে।"
		],
		"other": ""
	}
}