{
	"bn": {
		"review": "",
		"facts": [
			"Meduza আসলে তিনজন প্রোডিউসারদের একটা গ্রুপ।",
			"Meduza দলটা ইতালির।",
			"Goodboysও তিনজন প্রোডিউসারদের একটা গ্রুপ।",
			"Goodboys দলটার সদস্যরা সবাই ব্রিটেনের।",
			"গানটির গায়িকা Becky Hillও ব্রিটেনের।",
			"গানটি অক্টোবর ২০১৯-এ রিলিজ হয়।",
			"গানটি রিলিজ হয় বিখ্যাত রেকর্ড লেবেল Virgin Records এবং Polydor Records থেকে।",
			"রিলিজ হওয়ার পর UK Singles Chart-এ একসময় ১১তম স্থানেও চলে এসেছিল গানটি।"
		],
		"other": ""
	}
}