{
	"bn": {
		"review": "",
		"facts": [
			"YURI'র জন্ম ১৯৮৯ সালে, সাউথ কোরিয়ার Goyang শহরে।",
			"YURI'র পুরো নাম Kwon Yu-ri.",
			"YURI, Girls' Generation-এর সদস্য হিসেবে সঙ্গীতে ওনার ক্যারিয়ার শুরু করেন।",
			"Girls' Generation-এর সাবগ্রুপ Girls' Generation-Oh!GG-তেও তিনি সদস্য ছিলেন।",
			"গায়িকা গান গাওয়ার পাশাপাশি গান লেখেন আবার টিভি-সিনেমাতে অভিনয়ও করেন।",
			"Raiden সাউথ কোরিয়ার একজন ডিজে।",
			"ডিজে হওয়ার আগে তিনি গিটারিস্ট ছিলেন এবং সঙ্গীতের উপর ৬ বছর পড়াশোনা করেছেন।",
			"Raiden-কে ভিডিওতে গিটার হাতে দেখা যায়।",
			"Station সাউথ কোরিয়ার সবচেয়ে বড় বিনোদন কোম্পানি SM Entertainment-এর একটি প্রজেক্ট।",
			"এই প্রজেক্টের অংশ হিসেবে তারা প্রতি শুক্রবার একটি করে গান রিলিজ করে।",
			"এই গানটি Station-এর একটি গান যেটি ২৬ জানুয়ারি ২০১৮, শুক্রবারে রিলিজ পায়।",
			"Station এভাবে ২০১৬-১৭-তে ৫২টি এবং ২০১৭-১৮-তে ৫৭টি গান রিলিজ করেছে।",
			"Station-এর গানগুলো বিভিন্ন টপচার্টে স্থান করে নেয় এবং বিভিন্ন পুরষ্কার জিতে নেয়।"
		],
		"other": ""
	}
}