{
	"bn": {
		"review": "",
		"facts": [
			"SICKOTOY রোমানিয়ার সবচেয়ে আলোচিত মিউজিক প্রোডিউসারদের মধ্যে একজন।",
			"SICKOTOY'র আসল নাম Alex Cotoi.",
			"তিনি Pitbull, Mohombi এবং Wisin এর সাথে কাজ করে গ্র্যামি পেয়েছেন।",
			"ওনার \"Addicted\" গানটি রোমানিয়ায় Shazam-এর এক নম্বরে চলে আসে।",
			"SICKOTOY'র গানগুলো বুলগেরিয়া, ফ্রান্স, গ্রিস, ইটালি, কসোভো, লিথুয়ানিয়া, স্লোভেনিয়াসহ বিভিন্ন দেশের রেডিওতে বাজানো হয়।",
			"Misha Miller'র জন্ম ১৯৯৫ সালে, মলদোভার Chișinău-তে।",
			"Misha Miller'র আসল নাম Mihaela Arsene.",
			"Misha ৭ বছর বয়স থেকে গান গাওয়া শুরু করেন।",
			"গায়িকা DJ Sava, Manuel Riva এবং Vanotek-এর সাথে কাজ করেছেন।",
			"২০১৯ সালে গায়িকার গাওয়া \"What Mama Said\" গানটি Billboard ড্যান্স ক্লাব চার্টের ১৯ নম্বরে চলে আসে।"
		],
		"other": ""
	}
}
