{
	"bn": {
		"review": "",
		"facts": [
			"4Magic বুলগেরিয়ার একটি গার্ল গ্রুপ।",
			"4Magic-এর সদস্য চারজন: Elia, Nikole, Valentina এবং Eleonora.",
			"এরা সবাই বুলগেরিয়ার Plovdiv শহরের।",
			"পপ genre'র পাশাপাশি তারা বুলগেরিয়ার পল্লী (folk) গানও করেন।",
			"দলটি বুলগেরিয়ার X Factor-এর বিজয়ী।",
			"দলটি গঠিত হয় ২০১৪ সালে।",
			"আগে এরা \"Магия\" (Magic Quartet) নামে পারফর্ম করতো।",
			"X Factor-এর জন্য তারা নাম পরিবর্তন করে ইংরেজিতে 4Magic নাম দেয়।",
			"ইউটিউবে এদের গান লক্ষ লক্ষ মানুষ দেখে এবং বেশ জনপ্রিয়।",
			"4Magic-এর বিভিন্ন গান টপচার্টে স্থান করে নেয়াটাও অস্বাভাবিক কিছু নয়।",
			"Vselena বুলগেরিয়ার শব্দ, যার মানে universe.",
			"তাদের এই গানটির একটি ইংরেজি ভার্সনও আছে, নাম Dancing With The Satellites.",
			"এদের গান এর আগেও এই প্লেলিস্টে শেয়ার করা হয়েছে।"
		],
		"other": ""
	}
}