,আজব দেশের New Year প্লেলিস্ট 2019... [সূচনা ভিডিও],https://www.youtube.com/watch?v=dxgoEyHMBFg,,,
Spain,Karen Méndez - Tu Enemiga ft. Mike Bahía,https://www.youtube.com/watch?v=5kkNP7cHAJQ,2018-11-30,9,"hot,beats,dance"
Sweden,Nova Miller - Turn Up The Fire,https://www.youtube.com/watch?v=EXMsW3FoQuE,2018-09-21,8,"night,hot,beats"
Sweden,Sigrid Bernson - Hot Like The Sun,https://www.youtube.com/watch?v=TVd6gP5eZvE,2018-10-06,9,"hot,beats"
Romania,Serena - Safari (Official Video),https://www.youtube.com/watch?v=lpeuIu-ZYJY,2018-09-29,9,"night,hot,beats"
Romania,Akcent feat. Amira - Push [Love The Show] (Official Music Video),https://www.youtube.com/watch?v=F7fBsN_E60Q,2018-11-13,9,"night,hot,beats,dance"
Romania,Manuel Riva feat. Alexandra Stan - Miami (Official Video),https://www.youtube.com/watch?v=TPRPKRGn-sQ,2018-11-23,9,"night,beats,relaxing,dance"
Guam,Starla Edney - Baila Baila,https://www.youtube.com/watch?v=rIwdUfW8hM0,2018-11-01,9,"hot,beats,dance"
Greece,Eleni Foureira - Fuego (Lyrics),https://www.youtube.com/watch?v=aOdZGx4LZNQ,2018-12-22,9,"night,hot,beats"
Greece,Rina ft Sin boy - Gigi,https://www.youtube.com/watch?v=u9sTHE3QKyw,2018-12-26,8,"night,beats,dance,relaxing"
Belgium,Dj Licious - Come Along (Summerfestival 2015 Anthem) [Lyric Video],https://www.youtube.com/watch?v=s4WTUgrWCGQ,2018-10-01,9,"night,hot,beats,techno"
Turkey,Ömer Balık - Musical Eclipse,https://www.youtube.com/watch?v=BjqNRdbLWgw,2018-10-28,9,"night,beats,dance"
Albania,Diona Fona - Havera,https://www.youtube.com/watch?v=p4IiLV4ufJs,2018-10-08,10,"hot,beats,relaxing"
Albania,Poo Bear - Shade ft. Elvana Gjata,https://www.youtube.com/watch?v=kqg-LBMmoEY,2018-10-31,10,"night,hot,beats,dance,relaxing"
Albania,Seven ft. Argjentina - Pa ty (Produced by Seven & Dalton),https://www.youtube.com/watch?v=CSMgPq2JakQ,2018-12-04,9,"night,hot,beats,relaxing"
Turkey,Aynur Aydın - Günah Sevap,https://www.youtube.com/watch?v=rcFTCaJXau4,2018-12-15,8,"night,hot,beats"
Bulgaria,Mihaela Marinova - Tiempo (By Monoir) (Official Video),https://www.youtube.com/watch?v=-GfpmhPRZ7A,2018-12-05,9,"night,hot,beats"
Estonia,Koit Toome & Laura - Verona (Official video) #eestilaul2017 #winner,https://www.youtube.com/watch?v=73lpiC3kCzI,2018-10-17,9,"night,beats,classic"
Canada,Mia Martina - Latin Moon (Hasan Özdemir Remix) ELSEN PRO EDİT,https://www.youtube.com/watch?v=kCJDfkvEcIs,2018-10-30,9,"night,hot,beats,dance"
Canada,Majid Jordan - All Over You (Vertical Video),https://www.youtube.com/watch?v=zOzAIg21Ztg,2018-11-11,10,"night,hot,beats,dance"
Kosovo,Granit Derguti & Mixey ft. Xhensila - Lova,https://www.youtube.com/watch?v=rkhNBwHC62o,2018-12-21,9,"night,hot,beats"
Bulgaria,"4Magic - Together (Vecherai, Rado) (by Monoir) (Official Video)",https://www.youtube.com/watch?v=Q8DHDoTb5gk,2018-12-01,10,"hot,beats"
Venezuela,Evaluna Montaner - Me Liberé (Official Video),https://www.youtube.com/watch?v=noekzDezrvE,2018-11-08,10,"hot,beats,dance"
