,আজব দেশের New Year প্লেলিস্ট 2020... [সূচনা ভিডিও],https://www.youtube.com/watch?v=t-ODayDMEDY,,,
Romania,JO - Sangria (Official Video),https://www.youtube.com/watch?v=-szQo2bmgOM,2019-02-11,8,"night,hot,beats"
Sweden,Mabel - Don't Call Me Up,https://www.youtube.com/watch?v=9TQKyDD9Yig,2019-02-15,10,"hot,beats"
Kosovo,Capital T - Kujtime (Prod. BO Beatz),https://www.youtube.com/watch?v=9p3W7bi_d4Y,2019-02-21,8,"night,beats,relaxing"
Romania,DJ Sava feat. Carine - Sea Lo Que Sea (Extended Version),https://www.youtube.com/watch?v=KyvUIYDtvpI,2019-02-23,9,"night,beats,techno,dance"
Albania,NRG BAND - Ani mori Nuse ( Official Video ),https://www.youtube.com/watch?v=Knzl1UnzLMw,2019-02-26,9,"night,beats,relaxing"
Kosovo,Mimoza - Love For Days (Lyrics),https://www.youtube.com/watch?v=LCpRuTZNUNY,2019-02-28,9,"hot,beats,dance"
Albania,Samanta - Kush jam (Official Video 4K),https://www.youtube.com/watch?v=xSh1h7Efsbc,2019-03-07,8,"night,hot,beats,techno,dance"
Romania,Theo Rose feat. Dj Project - In Locul Meu | Videoclip Oficial,https://www.youtube.com/watch?v=QyAjQidB9M4,2019-03-10,9,"night,hot,beats,dance,relaxing"
UK,Dj Goja - Not Over,https://www.youtube.com/watch?v=gbvDJZ-6YDY,2019-03-15,9,"night,beats,techno"
Romania,MONOIR feat. BRIANNA - Shadows (Official Video),https://www.youtube.com/watch?v=nvxEfzSfz0U,2019-03-17,9,"hot,beats"
Guam,Pia Mia - Touch (Official Music Video),https://www.youtube.com/watch?v=M0it_zMP-EM,2019-03-26,9,"hot,beats"
Sweden,Benjamin Ingrosso - All Night Long (Lyrics),https://www.youtube.com/watch?v=YN1-U5M0sy4,2019-04-05,9,"night,hot,beats,dance"
Romania,Ruby - Toarna (Versuri),https://www.youtube.com/watch?v=0xu05nIadm4,2019-04-30,9,"night,hot,beats"
UK,RAYE - Love Me Again (Official Video),https://www.youtube.com/watch?v=Sskdh-ZBm5U,2019-08-22,9,"night,dance,relaxing"
UK,"Jax Jones, Martin Solveig, Madison Beer - All Day And Night (Late Night Session)",https://www.youtube.com/watch?v=jfreFPe99GU,2019-07-07,10,"night,beats,techno,dance"
Romania,ARIS - Streets Of Paris (Official Video),https://www.youtube.com/watch?v=-xKemS5mO7M,2019-06-21,9,"hot,beats"
Cyprus,Tamta - Replay - Cyprus 🇨🇾 - Official Music Video - Eurovision 2019,https://www.youtube.com/watch?v=WPFUZswe_zw,2019-06-10,9,"hot,beats,eurovision"
Switzerland,"ILIRA, Juan Magán - DIABLO (Official Video)",https://www.youtube.com/watch?v=WoBqUJKviP4,2019-06-28,9,"hot,beats"
UK,"Jonas Blue - Wild ft. Chelcee Grimes, TINI, Jhay Cortez",https://www.youtube.com/watch?v=BQogzYUoQWU,2019-07-23,10,"night,hot,beats,dance"
South Korea,"청하 (CHUNG HA) - ""Snapping"" MV",https://www.youtube.com/watch?v=deV_DmHKwjc,2019-08-12,9,"hot,beats,dance"
Romania,Ronna Riva - No Pasa Nada (Official Video),https://www.youtube.com/watch?v=0rkDgEEIyjU,2019-08-15,9,"night,hot,beats,dance,relaxing"
South Korea,HYOLYN(효린) ‘니가 더 잘 알잖아(youknowbetter)’ Official MV,https://youtu.be/_z4nJdLz1Hs?t=35,2019-08-27,7,"night,hot,beats"
South Korea,LUNA 루나 'Free Somebody' MV,https://www.youtube.com/watch?v=lpwG8f9nt4s,2019-09-06,10,"night,hot,beats,dance"
Sweden,"Jax Jones, Mabel - Ring Ring ft. Rich The Kid (Clean - Lyrics)",https://www.youtube.com/watch?v=a5EmZ_liON8,2019-09-13,9,"hot,beats"
Romania,Carine - No Time (Official Video),https://www.youtube.com/watch?v=dAFIOj2A0fc,2019-09-27,8,"night,hot,beats,classic,techno,dance,relaxing"
Netherlands,"Tiësto, Jonas Blue, Rita Ora - Ritual (Official Video)",https://www.youtube.com/watch?v=ontU9cOg354,2019-10-16,10,"night,hot,beats,techno,dance"
Romania,Esotique x Sandra N. - Bangladesh (by Monoir) [Official Video],https://www.youtube.com/watch?v=6X01HWhnaE4,2019-10-21,8,"night,beats"
UK,"Gorgon City, MK - There For You (Official Video)",https://www.youtube.com/watch?v=Qw_cyPWvidA,2019-10-28,10,"night,beats,techno,dance"
South Korea,Monsta X - SOMEONE'S SOMEONE,https://www.youtube.com/watch?v=foHejoV20bc,2019-11-05,9,"night,beats"
South Korea,밴디트 (BVNDIT) - Dumb MV,https://www.youtube.com/watch?v=aS3aWVTy5Ds,2019-11-06,10,"hot,beats"
Sweden,Gryffin - Body Back ft. Maia Wright (Official Music Video),https://www.youtube.com/watch?v=_X--xYexBdI,2019-11-21,9,"hot,beats,techno,dance"
Romania,DJ Layla - City of Sleeping Hearts (Official Video),https://www.youtube.com/watch?v=Ph2hosnXfbk,2019-11-22,9,"night,beats,techno,dance"
Spain,Isabela Merced - PAPI,https://www.youtube.com/watch?v=OXJpRQYdow4,2019-12-05,8,"night,beats,relaxing"
Netherlands,Hardwell feat. Jay Sean - Thinking About You (Official Music Video),https://www.youtube.com/watch?v=0nZFFEsFJzI,2019-12-06,8,"night,hot,beats,techno,dance"
UK,Jasmin Walia - Mañana (Official Music Video),https://www.youtube.com/watch?v=5vsJQwzI0As,2019-12-14,8,"night,techno,dance,hot,beats"
Romania,Akcent feat. REEA - Stole My Heart (Official Video),https://www.youtube.com/watch?v=RcsRAkNk1do,2019-12-17,8,"relaxing,dance"
Poland,Viki Gabor - Superhero - Poland🇵🇱 - Official Music Video - Junior Eurovision 2019,https://www.youtube.com/watch?v=n4qTWgZyBYw,2019-12-25,8,"hot,beats,techno,dance,eurovision"
