{
	"bn": {
		"review": "",
		"facts": [
			"Natalia Gordienko-এর জন্ম ১৯৮৭ সালে তখনকার সোভিয়েত ইউনিয়নের মলদোভায়।",
			"Eurovision 2020-তে মলদোভার পক্ষ থেকে এই গানটি নিয়ে অংশগ্রহণ করার কথা ছিল Natalia'র।",
			"কিন্তু প্রতিযোগিতাটি বাতিল হয়ে যাওয়ায় আর অংশগ্রহণ করা হলো না ওনার।",
			"তিনি এর আগেও Eurovision 2006-এ \"Loca\" নামের একটি গান নিয়ে অংশগ্রহণ করেছিলেন।",
			"ওনার বংশধারায় ইউক্রেনের প্রভাব আছে।",
			"তিনি ছোটবেলা থেকেই স্কুলে গান গাইতেন, পিয়ানো বাজাতেন এবং নাচ করতেন।",
			"১৫ বছর বয়স থেকে তিনি বিভিন্ন প্রতিযোগিতায় অংশগ্রহণ করা শুরু করেন।",
			"২০০৫ সালে Millennium নামে একটি ব্যান্ডের গায়িকা হিসেবে স্থান পান Natalia.",
			"২০০৫ থেকেই মূলত গায়িকা হিসেবে ওনার ক্যারিয়ারের শুরু।",
			"গায়িকা হিসেবে তিনি অসংখ্য জাতীয় ও আন্তর্জাতিক প্রতিযোগিতায় অংশগ্রহণ করেছেন এবং জিতেছেনও অনেকগুলোতে।"
		],
		"other": ""
	}
}