{
	"bn": {
		"review": "",
		"facts": [
			"Clean Bandit একটি ব্রিটিশ ইলেকট্রনিক মিউজিক গ্রুপ।",
			"২০০৮ সালে Cambridge শহরে তাদের যাত্রা শুরু হয়।",
			"তাদের ভোকালিস্ট পিএইচডি করার জন্য দল ছেড়ে চলে যান।",
			"তাই তারা কণ্ঠ দেয়ার জন্য বিভিন্ন আর্টিস্টকে অতিথি হিসেবে নিয়ে আসেন।",
			"তাদের অতিথিদের মধ্যে রয়েছেন Marina, Demi Lovato, Jess Glynne, Anne-Marie, Sean Paul ছাড়াও বিখ্যাত আরো অনেক আর্টিস্ট।",
			"এভাবে তারা একের পর এক হিট গান রিলিজ করে যাচ্ছেন।",
			"তারা তাদের কাজের জন্য Grammy Award, Urban Music Awards ছাড়াও আরো অসংখ্য পুরষ্কারের জন্য বিজয়ী ও মনোনীত হয়েছেন।",
			"গায়িকা Mabel'র জন্ম ১৯৯৬ সালে, স্পেইনের Málaga-তে।",
			"Mabel'র মা সুইডিশ গায়িকা Neneh Cherry এবং বাবা ব্রিটিশ রেকর্ড প্রোডিউসার Cameron McVey.",
			"Mabel স্পেইন ও সুইডেনে বড় হয়েছেন, তাই তিনি একাধারে স্প্যানিশ, সুইডিশ ও ব্রিটিশ।",
			"২০১৫ সালে \"Know Me Better\" এর মাধ্যমে ওনার ক্যারিয়ার শুরু হয়।",
			"ওনার \"Don't Call Me Up\" গানটি UK Singles চার্টে তিন নম্বরে চলে আসে।",
			"গায়িকা Brit Awards, Urban Music Awards ছাড়াও আরো অসংখ্য পুরষ্কারের জন্য বিজয়ী ও মনোনীত হয়েছেন।"
		],
		"other": ""
	}
}