{
	"bn": {
		"review": "",
		"facts": [
			"Astrid S'র জন্ম ১৯৯৬ সালে নরওয়ের Berkåk নামের শহরে।",
			"Astrid S'র পুরো নাম Astrid Smeplass.",
			"২০১৩ সালে নরওয়ের আইডল প্রতিযোগিতা \"Idol - Jakten på en superstjerne\"-তে তিনি পঞ্চম হয়েছিলেন।",
			"প্রতিযোগিতার পর গায়িকা Shattered নামে একটি গান রিলিজ করেন।",
			"এর কয়েকদিন পরই Sony ATV Music Publishing-এর সাথে Astrid'র চুক্তি হয়।",
			"গায়িকার 2AM গানটি আমেরিকায় Universal Music-এর মাধ্যমে রিলিজ হয়।"
		],
		"other": ""
	}
}
