{
	"bn": {
		"review": "",
		"facts": [
			"SUZY'র আসল নাম Bae Su-ji.",
			"SUZY'র জন্ম ১৯৯৪ সালে সাউথ কোরিয়ায়।",
			"SUZY আগে Miss A নামের একটা মিউজিক গ্রুপের সদস্য ছিলেন।",
			"এছাড়াও তিনি অনেকগুলো সাউথ কোরিয়ান টিভি সিরিজ এবং সিনেমায় অভিনয় করেছেন।",
			"Architecture 101 নামে এক সিনেমায় অভিনয় করার পর থেকে ওনাকে অনেকে \"icon of first love\" হিসেবে দেখেন।",
			"গানের ক্যারিয়ার শুরুর আগে তিনি অনলাইন শপিং মডেল ছিলেন।",
			"হংকংয়ের ম্যাডাম তুসোর মিউজিয়ামে ওনার একটি মোমের প্রতিকৃতি আছে যেটি ২০১৬ সাল থেকে ডিসপ্লেতে আছে।",
			"তিনিই প্রথম সাউথ কোরিয়ান নারী যার প্রতিকৃতি ওখানে যোগ হয়েছিল।",
			"কোরিয়ার বিভিন্ন ব্র্যান্ড এনডোর্স করার জন্য তিনি অনেক পরিচিত।",
			"তিনি কসমেটিকস, কাপড় চোপড়, নিত্যপ্রয়োজনীয় পণ্য থেকে শুরু করে অনেক ধরণের ব্র্যান্ডের জন্য কাজ করেছেন।",
			"এভাবে তিনি ২০১৩ সালেই ১৪টি ব্র্যান্ডকে এনডোর্স করেছেন এবং বিপুল অর্থ উপার্জন করেছেন।"
		],
		"other": ""
	}
}