{
	"bn": {
		"review": "",
		"facts": [
			"৪জন নারী সদস্য নিয়ে তৈরি হয়েছে Four of Diamonds নামের গ্রুপটি।",
			"৪ সদস্যের সবারই ৯০'র দশকে জন্ম, ইংল্যান্ডে।",
			"২০১৬-তে Four of Diamonds, The X Factor-এ অংশগ্রহণ করেছিলেন।",
			"সেখানে ওনারা অষ্টম হয়েছিলেন।",
			"সেখানে অষ্টম হলেও ২০১৮ সালে Virgin EMI Records-এর সাথে তারা চুক্তিবদ্ধ হন।"
		],
		"other": ""
	}
}