{
	"bn": {
		"review": "",
		"facts": [
			"Dara Ekimova'র জন্ম ২০০২ সালে বুলগেরিয়াতে।",
			"Dara'র বাবা Dimitar Ekimov বুলগেরিয়ার অন্যতম বিখ্যাত সঙ্গীত শিল্পী।",
			"Dara মাত্র ৫ বছর বয়স থেকে গানের চর্চা শুরু করেন।",
			"একসময় তিনি মিউজিক স্কুল এবং থিয়েটারে অংশগ্রহণ করেন।",
			"গায়িকা Nicolette Whitley'র কাছ থেকে নাচের প্রশিক্ষণ নেন।",
			"ওনার প্রশিক্ষক Got to dance নামের এক রিয়েলিটি শো'র বিজয়ী ছিলেন।"
		],
		"other": ""
	}
}