{
	"bn": {
		"review": "",
		"facts": [
			"Alban Skenderaj'র জন্ম ১৯৯৮২ সালে, আলবেনিয়ার Lushnjë-তে।",
			"Alban, alternative এবং pop rock ধাচের কাজ করেন।",
			"২০০৫ সালে তিনি Top Fest নামের একটি প্রতিযোগিতায় বিজয়ী হন। এতে করে তিনি ব্যাপক পরিচিতি পান।",
			"ওনার ডেব্যু এ্যালবাম Melodi (২০০৮) এবং Fllad Ne Shkretirë (২০০৯)-এর মাধ্যমে তিনি আরো খ্যাতি অর্জন করেন।",
			"২০১০ সালে Miriam Cani'র সাথে তিনি Festivali i Këngës-এ অংশগ্রহণ করেন।",
			"আলবেনিয়ার পক্ষে Eurovision-এ যাওয়ার জন্য এই প্রতিযোগিতা।",
			"ওখানে তারা দ্বিতীয় হন। তবে মজার ব্যাপার হলো সহশিল্পী Miriam Cani-কে তিনি একসময় বিয়ে করেন।",
			"আলবেনিয়ার X Factor এবং The Voice দুটোতেই তিনি জাজ ছিলেন।",
			"Arilena Ara'র জন্ম ১৯৯৮ সালে, আলবেনিয়ার Shkodër-এ।",
			"২০১২ সালে গায়িকা X Factor Albania-তে বিজয়ী হন।",
			"Arilena'র \"Nëntori\" গানটি Kënga Magjike নামে একটি প্রতিযোগিতায় তৃতীয় হয়।",
			"গানটির মাধ্যমে তিনি রোমানিয়া এবং ইউরোপে ব্যাপক পরিচিতি পান Romanian Airplay 100 চার্টে স্থান করে নেন।"
		],
		"other": ""
	}
}