{
	"bn": {
		"review": "",
		"facts": [
			"CLEO'র জন্ম ১৯৮৩ সালে, পোল্যান্ডের রাজধানী Szczecin-এ।",
			"CLEO'র আসল নাম Joanna Klepko.",
			"CLEO সাধারণত Soul, Gospel, R’n’B, Funk, Hip Hop এসব genre নিয়ে কাজ করেন।",
			"গায়িকা পোল্যান্ডের Studio Garaż প্রতিযোগিতার বিজয়ী।",
			"২০১১ সালে CLEO পোল্যান্ডের X Factor প্রতিযোগিতায় অংশগ্রহণ করেন।",
			"সেখানে মিউজিক প্রোডিউসার Donatan-এর সাথে গায়িকার পরিচয় হয়।",
			"গায়িকা Donatan-এর সাথে Eurovision 2014 প্রতিযোগিতায় পোল্যান্ডের হয়ে অংশগ্রহণ করেছিলেন।",
			"ওনার গানটি ৩৭টি দেশের গানের মধ্যে ১৪তম হয়েছিল।",
			"২০১৫ সালে রিলিজ পাওয়া এ্যালবাম HIPER / CHIMERA ট্রিপল প্লাটিনাম স্ট্যাটাস পেয়েছে।",
			"গানের শিরোনাম Alfabet Świateł পোলিশ ভাষায়, যার মানে \"Alphabet of lights\"."
		],
		"other": ""
	}
}