{
	"bn": {
		"review": "",
		"facts": [
			"NIKI'র জন্ম ১৯৯৯ সালে, ইনদোনেশিয়ার রাজধানী Jakarta-এ।",
			"NIKI'র আসল নাম Nicole Zefanya.",
			"গায়িকা গান গাওয়ার পাশাপাশি গান লেখেন, আবার সঙ্গে সঙ্গে রেকর্ড প্রোডিউসারও।",
			"গায়িকার গানের স্টাইলটা মায়ের কাছ থেকে পাওয়া।",
			"NIKI'র মা ছোটবেলায় ৯০'র দশকের R&B genre'র গান শুনতেন।",
			"গায়িকা Ride to Fame নামের একটি প্রতিযোগিতায় জিতেছিলেন।",
			"এজন্য তিনি Taylor Swift'র The Red Tour কনসার্টের opening act হিসেবে পারফর্ম করার মতো সম্মান পেয়েছিলেন।",
			"একারণে ওনার ইউটিউব চ্যানেলের অনেক উন্নতি হয়।",
			"২০১৭ সালে NIKI মিউজিক নিয়ে পড়াশোনার জন্য আমেরিকাতে চলে যান।",
			"অনেক সময় আমেরিকার মিউজিক ইন্ডাস্ট্রিতে এশিয়ান আর্টিস্টদেরকে সুযোগ দেয়া হয় না।",
			"NIKI চান under-represented এশিয়ান আর্স্টিস্টদেরকেও যেন মূল্যায়ন করা হয়।"
		],
		"other": "Taylor Swift'র The Red Tour কনসার্টের opening act-এর ভিডিওটা আছে এখানে: Nicole Zefanya (NIKI) & Stan Isakh - Opening for Taylor Swift Red Tour Concert Indonesia - https://www.youtube.com/watch?v=_Vh_kZamtQ4"
	}
}