{
	"bn": {
		"review": "",
		"facts": [
			"AleXa-কে অনেকে আগে Alex Christine নামেও চিনতেন।",
			"AleXa'র আসল নাম Alexaundra Christine Schneiderman.",
			"গায়িকা ২০১৯ সালে \"Bomb\" গানটির মধ্য দিয়ে গানের জগতে পদার্পণ করেন।",
			"\"Bomb\" গানটি বিলবোর্ডের World Digital Song Sales-এ ৭ নম্বরে চলে এসেছিল।",
			"AleXa'র বাবা রাশিয়ার বংশোদ্ভুত আমেরিকান আর মা কোরিয়ার।",
			"গায়িকা আমেরিকার ওকলাহোমাতে বড় হয়েছেন।",
			"গায়িকা ওনার নাচের জন্য কোরিয়ার একটি প্রতিযোগিতায় বিজয়ী হয়েছিলেন, যার নাম Rising Legends.",
			"AleXa'র লেখালেখি ও ফটোগ্রাফির প্রতি ঝোক আছে।",
			"গায়িকার Revolution নামের এই গানটি ২০২০ সালে রিলিজ হয়।",
			"গানটি ওনার DECOHERENCE নামের মিনি এ্যালবামের একটি গান।"
		],
		"other": ""
	}
}
