{
	"bn": {
		"review": "",
		"facts": [
			"Lena'র জন্ম ১৯৯১ সালে, Hanover শহরে, জার্মানিতে।",
			"Lena'র বাবা জার্মান আর মা স্লোভাকিয়ার।",
			"গায়িকার পুরো নাম Lena Johanna Therese Meyer-Landrut.",
			"গায়িকা Eurovision 2010 প্রতিযোগিতায় ওনার Satellite গানটি দিয়ে বিজয়ী হয়েছিলেন।",
			"তারপর থেকেই উনি জার্মানির একজন জনপ্রিয় গায়িকা।",
			"এছাড়াও তিনি ওনার কাজের জন্য MTV Europe Music Awards, Echo, Nickelodeon Kids' Choice Awards এবং আরো অনেক পুরস্কার পেয়েছেন।",
			"তিনি জার্মান The Voice Kids প্রতিযোগিতায় ৫টি সিজনে কোচ হিসেবে ছিলেন।",
			"ছোটবেলায় উনি ব্যালে নাচ প্র্যাকটিস করতেন এবং একসময় টিভিতে ছোটখাটো অভিনয়ও করেছেন।"
		],
		"other": ""
	}
}