{
	"bn": {
		"review": "",
		"facts": [
			"Sogdiana'র জন্ম ১৯৮৪ সালে, উজবেকিস্তানের রাজধানী Tashkent শহরে।",
			"Sogdiana Fedorinskaya'র আসল নাম Oksana Vladimirovna Nechitaylo.",
			"গায়িকা গান গাওয়ার পাশাপাশি অভিনয়ও করেন।",
			"গায়িকা রাশিয়ান, ইউক্রেনিয়ান, উজবেক, ফ্রেঞ্চ, চেচেন এবং ইংরেজি ভাষায় গান করেন।",
			"ওনার গানগুলোর মধ্যে কিছু কিছু তিনি নিজে লিখেছেন।",
			"গায়িকা বাস্তবে একটু লাজুক এবং ইন্ট্রোভার্ট।",
			"কিন্তু ওনার কণ্ঠ ট্রেইনড, অনেকটা Whitney Houston বা Mariah Carey-এর মতো।",
			"তিনি একসময় অভিনয়ে প্রচুর সময় দিলেও এখন মূলত সঙ্গীতেই বেশি সময় দেন।",
			"গানের শিরোনাম Молния রাশিয়ার ভাষায়, যার মানে Lightning."
		],
		"other": ""
	}
}