{
	"bn": {
		"review": "",
		"facts": [
			"গায়িকা Lesley Roy-এর জন্ম ১৯৮৬ সালে আয়ারল্যান্ডের ডাবলিনে।",
			"গায়িকা ২০০৬ সালে আমেরিকার রেকর্ড লেবেল Jive Records-এর সাথে চুক্তিবদ্ধ হন।",
			"ওনার প্রথম এ্যালবাম Unbeautiful বের হয়েছিল ২০০৮ সালে।",
			"তবে একসময় উনি গান লেখার দিকে মনযোগ দেন।",
			"তিনি Adam Lambert, Medinaসহ আরো অনেক আন্তর্জাতিক শিল্পীর জন্য গান লিখেছেন।",
			"২০২০ সালের ইউরোভিশনে তিনি আয়ারল্যান্ডের হয়ে অংশগ্রহণ করবেন।"
		],
		"other": ""
	}
}