{
	"bn": {
		"review": "",
		"facts": [
			"PLAZA'র আসল নাম Michael Martin Kaminski.",
			"PLAZA কানাডার একজন গায়ক, গীতিকার এবং সঙ্গীত প্রযোজক।",
			"তিনি বর্তমানে OVO Sound নামের একটি রেকর্ড লেবেলে আছেন।",
			"OVO Sound-এর প্রতিষ্ঠাতাদের মধ্যে Drake একজন।",
			"তিনি আধুনিক স্টাইলের R&B genre অর্থাৎ Alternative R&B স্টাইলের গান করেন।",
			"ওনার \"Personal\" নামের এই গানটি রিলিজ হয় ২০১৬ সালে।",
			"এই গানটি ওনার অন্যতম সফল একটি গান।",
			"ওনার গানগুলোর স্টাইল অনেকটা The Weeknd'র মতো।",
			"তিনি সবসময়ই চেয়েছেন যাতে ওনার গানগুলো গভীর রাতে ড্রাইভিং করার সময় শোনার উপযোগী হয়।",
			"তাই তিনি ওনার স্টডিওতে কাজ করার সময় শহরের বাতি এবং ধীর গতিতে ড্রাইভিংয়ের বিভিন্ন ভিডিও সবসময় চালিয়ে রাখেন, ইন্সপিরেশনের জন্য।"
		],
		"other": ""
	}
}