{
	"bn": {
		"review": "",
		"facts": [
			"Evelina'র জন্ম ১৯৯৫ সালে ফিনল্যান্ডের Turku নামের এক শহরে।",
			"Evelina'র আসল নাম Eveliina Tammenlaakso.",
			"গায়িকা সঙ্গীতের জগতে প্রথম পদচারণা করেন ২০১১ সালে The Voice of Finland প্রতিযোগিতার মাধ্যমে।",
			"তবে তিনি ফাইনাল পর্যন্ত যেতে পারেন নি।",
			"কিন্তু তারপরও Universal Music-এর একটি লেবেলের সাথে তিনি চুক্তিবদ্ধ।",
			"২০১৫ সালে তিনি \"Rakkaudesta lajiin\"/\"Vuoristorataa\" এই দুটি গান দিয়ে ক্যারিয়ার শুরু করেন।",
			"২০১৫ সালে তিনি র‌্যাপার Mikael Gabriel-এর সাথে Honey নামের একটি গান রিলিজ করেন।",
			"Honey গানটি অনেক জনপ্রিয়তা পায় এবং ফিনল্যান্ডের টপচার্টে ১ নম্বর স্থানে চলে আসে।"
		],
		"other": ""
	}
}