{
	"bn": {
		"review": "",
		"facts": [
			"Nicole Cherry'র জন্ম রোমানিয়ার রাজধানী Bucharest-এ, ১৯৯৮ সালে।",
			"Nicole Cherry'র পুরো নাম Nicoleta Janina Ghinea.",
			"গায়িকা ছোট বয়স থেকেই গান ও নাচের বিভিন্ন অনুষ্ঠানে পারফর্ম করতেন।",
			"২০১৩ সালে গায়িকা Memories নামের গানটির মাধ্যমে মূলত সফলতা অর্জন করেন।",
			"ঐ সময় ওনার বয়স ছিল মাত্র ১৪ বছর।",
			"২০১৪ সালে Nicole Cherry, Zu Music Award অর্জন করেন।",
			"তিনি রোমানিয়ার অন্যতম রেকর্ড লেবেল MediaPro Music-এর সাথে চুক্তিবদ্ধ।",
			"Joey Montana'র জন্ম ১৯৮২ সালে পানামায়।",
			"Joey, reggaeton স্টাইলের গান করেন।",
			"Joey'র বিভিন্ন গান বিভিন্ন সময় একাধিক দেশের টপচার্টে স্থান করে নিয়েছে।",
			"Joey বর্তমানে Universal Music-এর সাথে চুক্তিবদ্ধ।"
		],
		"other": ""
	}
}